EESchema Schematic File Version 4
LIBS:Payload-cache
EELAYER 26 0
EELAYER END
$Descr A4 11693 8268
encoding utf-8
Sheet 1 1
Title ""
Date ""
Rev ""
Comp ""
Comment1 ""
Comment2 ""
Comment3 ""
Comment4 ""
$EndDescr
$Comp
L Mechanical:MountingHole MH1
U 1 1 5C70847C
P 4450 800
F 0 "MH1" H 4550 846 50  0000 L CNN
F 1 "MountingHole" H 4550 755 50  0000 L CNN
F 2 "Mounting_Holes:MountingHole_3mm" H 4450 800 50  0001 C CNN
F 3 "~" H 4450 800 50  0001 C CNN
	1    4450 800 
	1    0    0    -1  
$EndComp
$Comp
L Mechanical:MountingHole MH3
U 1 1 5C70850E
P 5900 800
F 0 "MH3" H 6000 846 50  0000 L CNN
F 1 "MountingHole" H 6000 755 50  0000 L CNN
F 2 "Mounting_Holes:MountingHole_3mm" H 5900 800 50  0001 C CNN
F 3 "~" H 5900 800 50  0001 C CNN
	1    5900 800 
	1    0    0    -1  
$EndComp
$Comp
L Mechanical:MountingHole MH4
U 1 1 5C70857C
P 6600 800
F 0 "MH4" H 6700 846 50  0000 L CNN
F 1 "MountingHole" H 6700 755 50  0000 L CNN
F 2 "Mounting_Holes:MountingHole_3mm" H 6600 800 50  0001 C CNN
F 3 "~" H 6600 800 50  0001 C CNN
	1    6600 800 
	1    0    0    -1  
$EndComp
$Comp
L Mechanical:MountingHole MH2
U 1 1 5C7085DC
P 5200 800
F 0 "MH2" H 5300 846 50  0000 L CNN
F 1 "MountingHole" H 5300 755 50  0000 L CNN
F 2 "Mounting_Holes:MountingHole_3mm" H 5200 800 50  0001 C CNN
F 3 "~" H 5200 800 50  0001 C CNN
	1    5200 800 
	1    0    0    -1  
$EndComp
$Comp
L SOLAR:PCbus U1
U 1 1 5C713480
P 1500 1100
F 0 "U1" H 2541 771 50  0000 L CNN
F 1 "PCbus" H 2541 680 50  0000 L CNN
F 2 "PC BUS:BUS PC104" H 1500 1100 50  0001 C CNN
F 3 "" H 1500 1100 50  0001 C CNN
	1    1500 1100
	1    0    0    -1  
$EndComp
NoConn ~ 3050 2400
NoConn ~ 3050 2300
NoConn ~ 3050 2250
NoConn ~ 3050 2200
NoConn ~ 3050 2100
NoConn ~ 3050 2050
NoConn ~ 3050 2000
NoConn ~ 3050 1450
NoConn ~ 3050 1400
NoConn ~ 3050 1300
NoConn ~ 3050 1200
NoConn ~ 3050 1150
NoConn ~ 2800 2650
NoConn ~ 2750 2650
NoConn ~ 2450 2650
NoConn ~ 2400 2650
NoConn ~ 2350 2650
NoConn ~ 2000 900 
NoConn ~ 2100 900 
NoConn ~ 2600 900 
NoConn ~ 2700 900 
NoConn ~ 2800 900 
Wire Wire Line
	3050 1250 3250 1250
Wire Wire Line
	1550 900  1550 700 
Wire Wire Line
	2750 700  2750 900 
Wire Wire Line
	2550 900  2550 700 
Connection ~ 2550 700 
Wire Wire Line
	2550 700  2750 700 
Wire Wire Line
	2350 900  2350 700 
Connection ~ 2350 700 
Wire Wire Line
	2350 700  2550 700 
Wire Wire Line
	2150 900  2150 700 
Connection ~ 2150 700 
Wire Wire Line
	2150 700  2350 700 
Wire Wire Line
	1950 900  1950 700 
Connection ~ 1950 700 
Wire Wire Line
	1950 700  2150 700 
Wire Wire Line
	1750 900  1750 700 
Wire Wire Line
	1550 700  1750 700 
Connection ~ 1750 700 
Wire Wire Line
	1750 700  1950 700 
Wire Wire Line
	1550 700  1350 700 
Wire Wire Line
	1350 700  1350 850 
Connection ~ 1550 700 
$Comp
L power:GND #PWR0101
U 1 1 5C7BAF9B
P 1350 850
F 0 "#PWR0101" H 1350 600 50  0001 C CNN
F 1 "GND" H 1355 677 50  0000 C CNN
F 2 "" H 1350 850 50  0001 C CNN
F 3 "" H 1350 850 50  0001 C CNN
	1    1350 850 
	1    0    0    -1  
$EndComp
Wire Wire Line
	3050 1550 3250 1550
Wire Wire Line
	3250 1550 3250 1250
Wire Wire Line
	3050 2350 3250 2350
Connection ~ 3250 1550
Wire Wire Line
	3050 1750 3250 1750
Connection ~ 3250 1750
Wire Wire Line
	3250 1750 3250 1550
Wire Wire Line
	3050 1950 3250 1950
Connection ~ 3250 1950
Wire Wire Line
	3250 1950 3250 1750
Wire Wire Line
	3050 2150 3250 2150
Wire Wire Line
	3250 1950 3250 2150
Connection ~ 3250 2150
Wire Wire Line
	3250 2150 3250 2350
Wire Wire Line
	2300 2650 2300 2850
Wire Wire Line
	2300 2850 2500 2850
Wire Wire Line
	3250 2850 3250 2350
Connection ~ 3250 2350
Wire Wire Line
	2500 2650 2500 2850
Connection ~ 2500 2850
Wire Wire Line
	2500 2850 2700 2850
Wire Wire Line
	2700 2650 2700 2850
Connection ~ 2700 2850
Wire Wire Line
	2700 2850 3250 2850
$Comp
L power:GND #PWR0102
U 1 1 5C7BC2F5
P 3250 2850
F 0 "#PWR0102" H 3250 2600 50  0001 C CNN
F 1 "GND" H 3255 2677 50  0000 C CNN
F 2 "" H 3250 2850 50  0001 C CNN
F 3 "" H 3250 2850 50  0001 C CNN
	1    3250 2850
	1    0    0    -1  
$EndComp
Connection ~ 3250 2850
Wire Wire Line
	2150 2650 2150 2850
Wire Wire Line
	2150 2850 2200 2850
Connection ~ 2300 2850
Wire Wire Line
	2200 2650 2200 2850
Connection ~ 2200 2850
Wire Wire Line
	2200 2850 2300 2850
Wire Wire Line
	1300 1150 1100 1150
Wire Wire Line
	1100 1150 1100 1200
Wire Wire Line
	1300 2200 1100 2200
Connection ~ 1100 2200
Wire Wire Line
	1100 2200 1100 2400
Wire Wire Line
	1300 2150 1100 2150
Connection ~ 1100 2150
Wire Wire Line
	1100 2150 1100 2200
Wire Wire Line
	1300 2100 1100 2100
Connection ~ 1100 2100
Wire Wire Line
	1100 2100 1100 2150
Wire Wire Line
	1300 2050 1100 2050
Connection ~ 1100 2050
Wire Wire Line
	1100 2050 1100 2100
Wire Wire Line
	1300 1200 1100 1200
Connection ~ 1100 1200
Wire Wire Line
	1100 1200 1100 2050
$Comp
L power:GND #PWR0103
U 1 1 5C7BFE55
P 1100 2400
F 0 "#PWR0103" H 1100 2150 50  0001 C CNN
F 1 "GND" H 1105 2227 50  0000 C CNN
F 2 "" H 1100 2400 50  0001 C CNN
F 3 "" H 1100 2400 50  0001 C CNN
	1    1100 2400
	1    0    0    -1  
$EndComp
Wire Wire Line
	1650 2650 1700 2650
Connection ~ 1700 2650
Wire Wire Line
	1700 2650 1750 2650
Connection ~ 1750 2650
Wire Wire Line
	1750 2650 1800 2650
Connection ~ 1800 2650
Wire Wire Line
	1800 2650 1850 2650
Connection ~ 1850 2650
Wire Wire Line
	1850 2650 1900 2650
Connection ~ 1900 2650
Wire Wire Line
	1900 2650 1950 2650
Connection ~ 1950 2650
Wire Wire Line
	1950 2650 2000 2650
Connection ~ 2000 2650
Wire Wire Line
	2000 2650 2050 2650
Connection ~ 2050 2650
Wire Wire Line
	2050 2650 2100 2650
Text Label 1900 2850 0    30   ~ 0
5V
Wire Wire Line
	1300 2000 1300 1950
Connection ~ 1300 1600
Wire Wire Line
	1300 1600 1300 1550
Connection ~ 1300 1650
Wire Wire Line
	1300 1650 1300 1600
Connection ~ 1300 1700
Wire Wire Line
	1300 1700 1300 1650
Connection ~ 1300 1750
Wire Wire Line
	1300 1750 1300 1700
Connection ~ 1300 1800
Wire Wire Line
	1300 1800 1300 1750
Connection ~ 1300 1850
Wire Wire Line
	1300 1850 1300 1800
Connection ~ 1300 1900
Wire Wire Line
	1300 1900 1300 1850
Connection ~ 1300 1950
Wire Wire Line
	1300 1950 1300 1900
Wire Wire Line
	1300 1700 1250 1700
Text Label 1250 1700 2    50   ~ 0
5V
Wire Wire Line
	1300 2250 1300 2300
Wire Wire Line
	1300 2650 1550 2650
Connection ~ 1300 2300
Wire Wire Line
	1300 2300 1300 2350
Connection ~ 1300 2350
Wire Wire Line
	1300 2350 1300 2400
Connection ~ 1300 2400
Wire Wire Line
	1300 2400 1300 2650
Connection ~ 1550 2650
Wire Wire Line
	1550 2650 1600 2650
Connection ~ 1300 2650
Wire Wire Line
	1300 1250 1300 1300
Connection ~ 1300 1300
Wire Wire Line
	1300 1300 1300 1350
Connection ~ 1300 1350
Wire Wire Line
	1300 1350 1300 1400
Connection ~ 1300 1400
Wire Wire Line
	1300 1400 1300 1450
Connection ~ 1300 1450
Wire Wire Line
	1300 1450 1300 1500
Wire Wire Line
	1300 1350 1250 1350
Text Label 1250 1350 2    50   ~ 0
3V3
Text Label 1300 2850 2    30   ~ 0
3V3
Text Label 1600 900  1    30   ~ 0
5V
Text Label 3050 1500 0    30   ~ 0
3V3
Text Label 3050 1350 0    30   ~ 0
5V
Text Label 2250 2650 3    30   ~ 0
3V3
Text Label 2050 900  1    30   ~ 0
5V
Text Label 2650 900  1    30   ~ 0
5V
Text Label 2500 900  1    30   ~ 0
3V3
Text Label 2200 900  1    30   ~ 0
3V3
Text Label 1650 900  1    30   ~ 0
OBC1
Text Label 1700 900  1    30   ~ 0
OBC2
Text Label 1800 900  1    30   ~ 0
OBC3
Text Label 1850 900  1    30   ~ 0
OBC4
Text Label 1900 900  1    30   ~ 0
OBC5
Text Label 3050 1600 0    30   ~ 0
OBC6
Text Label 3050 1650 0    30   ~ 0
OBC7
Text Label 3050 1700 0    30   ~ 0
OBC8
Text Label 3050 1800 0    30   ~ 0
POW1
Text Label 3050 1850 0    30   ~ 0
POW2
Text Label 3050 1900 0    30   ~ 0
POW3
Text Label 2550 2650 3    30   ~ 0
POW6
Text Label 2600 2650 3    30   ~ 0
POW5
Text Label 2650 2650 3    30   ~ 0
POW4
$Comp
L MCU_Microchip_ATmega:ATmega328P-PU U4
U 1 1 5C978EA2
P 4650 3400
F 0 "U4" H 4009 3446 50  0000 R CNN
F 1 "ATmega328P-PU" H 4009 3355 50  0000 R CNN
F 2 "Package_DIP:DIP-28_W7.62mm" H 4650 3400 50  0001 C CIN
F 3 "http://ww1.microchip.com/downloads/en/DeviceDoc/ATmega328_P%20AVR%20MCU%20with%20picoPower%20Technology%20Data%20Sheet%2040001984A.pdf" H 4650 3400 50  0001 C CNN
	1    4650 3400
	1    0    0    -1  
$EndComp
$Comp
L Device:Crystal Y1
U 1 1 5C979107
P 6150 3200
F 0 "Y1" V 6104 3331 50  0000 L CNN
F 1 "16MHz" V 6195 3331 50  0000 L CNN
F 2 "Crystal:Crystal_HC49-U_Vertical" H 6150 3200 50  0001 C CNN
F 3 "~" H 6150 3200 50  0001 C CNN
	1    6150 3200
	0    1    1    0   
$EndComp
$Comp
L Device:C C1
U 1 1 5C979232
P 6650 3050
F 0 "C1" V 6398 3050 50  0000 C CNN
F 1 "22pF" V 6489 3050 50  0000 C CNN
F 2 "Capacitors_SMD:C_0805_HandSoldering" H 6688 2900 50  0001 C CNN
F 3 "~" H 6650 3050 50  0001 C CNN
	1    6650 3050
	0    1    1    0   
$EndComp
$Comp
L Device:C C2
U 1 1 5C989B71
P 6650 3400
F 0 "C2" V 6398 3400 50  0000 C CNN
F 1 "22pF" V 6489 3400 50  0000 C CNN
F 2 "Capacitors_SMD:C_0805_HandSoldering" H 6688 3250 50  0001 C CNN
F 3 "~" H 6650 3400 50  0001 C CNN
	1    6650 3400
	0    1    1    0   
$EndComp
Wire Wire Line
	5950 3050 6150 3050
Wire Wire Line
	6500 3050 6150 3050
Connection ~ 6150 3050
Wire Wire Line
	6150 3400 6150 3350
Connection ~ 6150 3350
Wire Wire Line
	6150 3400 6500 3400
Wire Wire Line
	6800 3050 7050 3050
Wire Wire Line
	7050 3050 7050 3200
Wire Wire Line
	7050 3400 6800 3400
Text Label 5450 2200 0    50   ~ 0
LED1
Wire Wire Line
	5250 2200 5450 2200
Text Label 5450 2300 0    50   ~ 0
LED2
Wire Wire Line
	5250 2300 5450 2300
Wire Wire Line
	5250 3300 5450 3300
Wire Wire Line
	5450 3500 5250 3500
Wire Wire Line
	5250 3600 5450 3600
Text Label 5450 3900 0    50   ~ 0
RX
Text Label 5450 4000 0    50   ~ 0
TX
$Comp
L Device:R R1
U 1 1 5C98BA0E
P 7250 4400
F 0 "R1" V 7043 4400 50  0000 C CNN
F 1 "10K" V 7134 4400 50  0000 C CNN
F 2 "Resistors_SMD:R_0805_HandSoldering" V 7180 4400 50  0001 C CNN
F 3 "~" H 7250 4400 50  0001 C CNN
	1    7250 4400
	0    1    1    0   
$EndComp
Wire Wire Line
	7100 4400 6900 4400
Text Label 7700 4400 0    50   ~ 0
5V
Wire Wire Line
	7700 4400 7400 4400
Wire Wire Line
	6900 4400 6900 4500
Connection ~ 7050 3200
Wire Wire Line
	7050 3200 7050 3400
Wire Wire Line
	7050 3200 7350 3200
Wire Wire Line
	5450 4000 5250 4000
Wire Wire Line
	5250 3900 5450 3900
Wire Wire Line
	4650 5050 4650 4900
Wire Wire Line
	4650 1750 4650 1900
Wire Wire Line
	4750 1900 4750 1750
Connection ~ 4750 1750
Wire Wire Line
	4750 1750 4650 1750
$Comp
L Device:C C3
U 1 1 5C9C53CA
P 4900 1500
F 0 "C3" V 4648 1500 50  0000 C CNN
F 1 "22pF" V 4739 1500 50  0000 C CNN
F 2 "Capacitors_SMD:C_0805_HandSoldering" H 4938 1350 50  0001 C CNN
F 3 "~" H 4900 1500 50  0001 C CNN
	1    4900 1500
	0    1    1    0   
$EndComp
Wire Wire Line
	4750 1500 4650 1500
Wire Wire Line
	4650 1500 4650 1750
Connection ~ 4650 1750
Text Label 1600 3900 2    50   ~ 0
POW1
NoConn ~ 2000 3900
Wire Wire Line
	2000 3900 1600 3900
Text Label 1600 4000 2    50   ~ 0
POW2
NoConn ~ 2000 4000
Wire Wire Line
	2000 4000 1600 4000
Text Label 1600 4100 2    50   ~ 0
POW3
NoConn ~ 2000 4100
Wire Wire Line
	2000 4100 1600 4100
Text Label 1600 4200 2    50   ~ 0
POW4
NoConn ~ 2000 4200
Wire Wire Line
	2000 4200 1600 4200
Text Label 1600 4300 2    50   ~ 0
POW5
NoConn ~ 2000 4300
Wire Wire Line
	2000 4300 1600 4300
Text Label 1600 4400 2    50   ~ 0
POW6
NoConn ~ 2000 4400
Wire Wire Line
	2000 4400 1600 4400
Text Label 1600 4500 2    50   ~ 0
POW7
NoConn ~ 2000 4500
Wire Wire Line
	2000 4500 1600 4500
Text Label 1600 4600 2    50   ~ 0
POW8
NoConn ~ 2000 4600
Wire Wire Line
	2000 4600 1600 4600
Text Label 1600 4700 2    50   ~ 0
POW9
NoConn ~ 2000 4700
Wire Wire Line
	2000 4700 1600 4700
Text Label 1600 4800 2    50   ~ 0
POW10
NoConn ~ 2000 4800
Wire Wire Line
	2000 4800 1600 4800
Text Label 1600 4900 2    50   ~ 0
POW11
NoConn ~ 2000 4900
Wire Wire Line
	2000 4900 1600 4900
Text Label 1600 5000 2    50   ~ 0
POW12
NoConn ~ 2000 5000
Wire Wire Line
	2000 5000 1600 5000
Text Label 1600 5100 2    50   ~ 0
POW13
NoConn ~ 2000 5100
Wire Wire Line
	2000 5100 1600 5100
Text Label 1600 5200 2    50   ~ 0
POW14
NoConn ~ 2000 5200
Wire Wire Line
	2000 5200 1600 5200
Text Label 1600 5300 2    50   ~ 0
POW15
NoConn ~ 2000 5300
Wire Wire Line
	2000 5300 1600 5300
Text Label 1600 5400 2    50   ~ 0
POW16
NoConn ~ 2000 5400
Wire Wire Line
	2000 5400 1600 5400
Text Label 1600 5500 2    50   ~ 0
POW17
NoConn ~ 2000 5500
Wire Wire Line
	2000 5500 1600 5500
Text Label 1600 5750 2    50   ~ 0
OBC1
Wire Wire Line
	2000 5750 1600 5750
Text Label 1600 5850 2    50   ~ 0
OBC2
Text Label 1600 5950 2    50   ~ 0
OBC3
Text Label 1600 6050 2    50   ~ 0
OBC4
Text Label 1600 6150 2    50   ~ 0
OBC5
Text Label 1600 6250 2    50   ~ 0
OBC6
Text Label 1600 6350 2    50   ~ 0
OBC7
Text Label 1600 6450 2    50   ~ 0
OBC8
Wire Wire Line
	2000 6450 1600 6450
Text Label 2400 900  1    30   ~ 0
DASW1
Text Label 2450 900  1    30   ~ 0
DASW2
Text Label 1600 6650 2    50   ~ 0
DASW1
Wire Wire Line
	2000 6650 1600 6650
Text Label 1600 6750 2    50   ~ 0
DASW2
Wire Wire Line
	2000 6750 1600 6750
$Comp
L sd_card:SD_card U2
U 1 1 5CA2180F
P 9050 2200
F 0 "U2" H 9577 1971 50  0000 L CNN
F 1 "SD_card" H 9577 1880 50  0000 L CNN
F 2 "SD_Card:SD_card" H 9050 1250 50  0001 C CNN
F 3 "" H 9050 1250 50  0001 C CNN
	1    9050 2200
	1    0    0    -1  
$EndComp
Wire Wire Line
	8050 1950 8550 1950
Text Label 8050 2100 2    50   ~ 0
3V3
Wire Wire Line
	8050 2100 8550 2100
Wire Wire Line
	8050 2250 8550 2250
Wire Wire Line
	8050 3000 8550 3000
NoConn ~ 8050 2250
Wire Wire Line
	5950 2800 5950 3050
Wire Wire Line
	5250 2800 5950 2800
Wire Wire Line
	5750 3350 6150 3350
Wire Wire Line
	5250 2900 5750 2900
Wire Wire Line
	5750 2900 5750 3350
$Comp
L Switch:SW_DIP_x02 SW1
U 1 1 5CB44C3C
P 8050 4600
F 0 "SW1" H 8050 4967 50  0000 C CNN
F 1 "SW_DIP_x02" H 8050 4876 50  0000 C CNN
F 2 "Buttons_Switches_THT:SW_TH_Tactile_Omron_B3F-10xx" H 8050 4600 50  0001 C CNN
F 3 "~" H 8050 4600 50  0001 C CNN
	1    8050 4600
	1    0    0    -1  
$EndComp
Wire Wire Line
	8700 4500 8350 4500
NoConn ~ 2000 6450
Text Label 2000 6650 0    50   ~ 0
INT1
Text Label 2000 6750 0    50   ~ 0
INT2
$Comp
L Device:R R5
U 1 1 5CB867B0
P 7250 3850
F 0 "R5" V 7043 3850 50  0000 C CNN
F 1 "10K" V 7134 3850 50  0000 C CNN
F 2 "Resistors_SMD:R_0805_HandSoldering" V 7180 3850 50  0001 C CNN
F 3 "~" H 7250 3850 50  0001 C CNN
	1    7250 3850
	0    1    1    0   
$EndComp
Wire Wire Line
	7100 3850 6900 3850
Text Label 7700 3850 0    50   ~ 0
5V
Wire Wire Line
	7700 3850 7400 3850
Wire Wire Line
	6900 3850 6900 3950
$Comp
L Switch:SW_DIP_x02 SW2
U 1 1 5CB867BD
P 8050 4050
F 0 "SW2" H 8050 4417 50  0000 C CNN
F 1 "SW_DIP_x02" H 8050 4326 50  0000 C CNN
F 2 "Buttons_Switches_THT:SW_PUSH_6mm_h13mm" H 8050 4050 50  0001 C CNN
F 3 "~" H 8050 4050 50  0001 C CNN
	1    8050 4050
	1    0    0    -1  
$EndComp
Wire Wire Line
	8700 3950 8350 3950
$Comp
L Device:R R4
U 1 1 5CBBBE82
P 6100 3700
F 0 "R4" V 5893 3700 50  0000 C CNN
F 1 "10K" V 5984 3700 50  0000 C CNN
F 2 "Resistors_SMD:R_0805_HandSoldering" V 6030 3700 50  0001 C CNN
F 3 "~" H 6100 3700 50  0001 C CNN
	1    6100 3700
	0    1    1    0   
$EndComp
Text Label 6550 3700 0    50   ~ 0
5V
Wire Wire Line
	6550 3700 6250 3700
$Comp
L Device:Q_NMOS_DGS Q1
U 1 1 5CBDB239
P 6700 1500
F 0 "Q1" H 6905 1546 50  0000 L CNN
F 1 "Q_NMOS_DGS" H 6905 1455 50  0000 L CNN
F 2 "Package_TO_SOT_THT:TO-220-3_Vertical" H 6900 1600 50  0001 C CNN
F 3 "~" H 6700 1500 50  0001 C CNN
	1    6700 1500
	1    0    0    -1  
$EndComp
Text Label 6100 1500 2    50   ~ 0
LED1
Wire Wire Line
	6800 1950 6800 1700
$Comp
L Device:R R8
U 1 1 5CC00FBC
P 7450 1150
F 0 "R8" V 7243 1150 50  0000 C CNN
F 1 "1K" V 7334 1150 50  0000 C CNN
F 2 "Resistors_SMD:R_0805_HandSoldering" V 7380 1150 50  0001 C CNN
F 3 "~" H 7450 1150 50  0001 C CNN
	1    7450 1150
	0    1    1    0   
$EndComp
Wire Wire Line
	6800 1150 6800 1300
Text Label 7600 1150 0    50   ~ 0
5V
$Comp
L Device:LED D1
U 1 1 5CC0A908
P 7050 1150
F 0 "D1" H 7041 1366 50  0000 C CNN
F 1 "LED" H 7041 1275 50  0000 C CNN
F 2 "LED_SMD:LED_0805_2012Metric_Pad1.15x1.40mm_HandSolder" H 7050 1150 50  0001 C CNN
F 3 "~" H 7050 1150 50  0001 C CNN
	1    7050 1150
	1    0    0    -1  
$EndComp
Wire Wire Line
	7300 1150 7200 1150
Wire Wire Line
	6900 1150 6800 1150
$Comp
L Device:Q_NMOS_DGS Q2
U 1 1 5CC27DCC
P 8850 1250
F 0 "Q2" H 9055 1296 50  0000 L CNN
F 1 "Q_NMOS_DGS" H 9055 1205 50  0000 L CNN
F 2 "Package_TO_SOT_THT:TO-220-3_Vertical" H 9050 1350 50  0001 C CNN
F 3 "~" H 8850 1250 50  0001 C CNN
	1    8850 1250
	1    0    0    -1  
$EndComp
Text Label 8250 1250 2    50   ~ 0
LED2
Wire Wire Line
	8950 1700 8950 1450
$Comp
L Device:R R10
U 1 1 5CC27DDF
P 9600 900
F 0 "R10" V 9393 900 50  0000 C CNN
F 1 "1K" V 9484 900 50  0000 C CNN
F 2 "Resistors_SMD:R_0805_HandSoldering" V 9530 900 50  0001 C CNN
F 3 "~" H 9600 900 50  0001 C CNN
	1    9600 900 
	0    1    1    0   
$EndComp
Wire Wire Line
	8950 900  8950 1050
Text Label 9750 900  0    50   ~ 0
5V
$Comp
L Device:LED D2
U 1 1 5CC27DE8
P 9200 900
F 0 "D2" H 9191 1116 50  0000 C CNN
F 1 "LED" H 9191 1025 50  0000 C CNN
F 2 "LED_SMD:LED_0805_2012Metric_Pad1.15x1.40mm_HandSolder" H 9200 900 50  0001 C CNN
F 3 "~" H 9200 900 50  0001 C CNN
	1    9200 900 
	1    0    0    -1  
$EndComp
Wire Wire Line
	9450 900  9350 900 
Wire Wire Line
	9050 900  8950 900 
NoConn ~ 4050 2200
NoConn ~ 5250 4500
NoConn ~ 5250 4600
Text Label 2850 4550 2    50   ~ 0
RX
Text Label 2850 4450 2    50   ~ 0
TX
Wire Wire Line
	2850 4550 3050 4550
Wire Wire Line
	2850 4450 3050 4450
$Comp
L power:GND #PWR0105
U 1 1 5CD0662C
P 5050 1500
F 0 "#PWR0105" H 5050 1250 50  0001 C CNN
F 1 "GND" H 5055 1327 50  0000 C CNN
F 2 "" H 5050 1500 50  0001 C CNN
F 3 "" H 5050 1500 50  0001 C CNN
	1    5050 1500
	1    0    0    -1  
$EndComp
$Comp
L power:GND #PWR0106
U 1 1 5CD0692B
P 6800 1950
F 0 "#PWR0106" H 6800 1700 50  0001 C CNN
F 1 "GND" H 6805 1777 50  0000 C CNN
F 2 "" H 6800 1950 50  0001 C CNN
F 3 "" H 6800 1950 50  0001 C CNN
	1    6800 1950
	1    0    0    -1  
$EndComp
$Comp
L power:GND #PWR0107
U 1 1 5CD07960
P 4650 5050
F 0 "#PWR0107" H 4650 4800 50  0001 C CNN
F 1 "GND" H 4655 4877 50  0000 C CNN
F 2 "" H 4650 5050 50  0001 C CNN
F 3 "" H 4650 5050 50  0001 C CNN
	1    4650 5050
	1    0    0    -1  
$EndComp
$Comp
L power:GND #PWR0110
U 1 1 5CD09B48
P 7350 3200
F 0 "#PWR0110" H 7350 2950 50  0001 C CNN
F 1 "GND" H 7355 3027 50  0000 C CNN
F 2 "" H 7350 3200 50  0001 C CNN
F 3 "" H 7350 3200 50  0001 C CNN
	1    7350 3200
	1    0    0    -1  
$EndComp
$Comp
L power:GND #PWR0111
U 1 1 5CD09B8B
P 8050 3000
F 0 "#PWR0111" H 8050 2750 50  0001 C CNN
F 1 "GND" H 8055 2827 50  0000 C CNN
F 2 "" H 8050 3000 50  0001 C CNN
F 3 "" H 8050 3000 50  0001 C CNN
	1    8050 3000
	1    0    0    -1  
$EndComp
$Comp
L power:GND #PWR0112
U 1 1 5CD09BCE
P 8700 3950
F 0 "#PWR0112" H 8700 3700 50  0001 C CNN
F 1 "GND" H 8705 3777 50  0000 C CNN
F 2 "" H 8700 3950 50  0001 C CNN
F 3 "" H 8700 3950 50  0001 C CNN
	1    8700 3950
	1    0    0    -1  
$EndComp
$Comp
L power:GND #PWR0113
U 1 1 5CD09C11
P 8700 4500
F 0 "#PWR0113" H 8700 4250 50  0001 C CNN
F 1 "GND" H 8705 4327 50  0000 C CNN
F 2 "" H 8700 4500 50  0001 C CNN
F 3 "" H 8700 4500 50  0001 C CNN
	1    8700 4500
	1    0    0    -1  
$EndComp
$Comp
L power:GND #PWR0114
U 1 1 5CD0A3C4
P 8950 1700
F 0 "#PWR0114" H 8950 1450 50  0001 C CNN
F 1 "GND" H 8955 1527 50  0000 C CNN
F 2 "" H 8950 1700 50  0001 C CNN
F 3 "" H 8950 1700 50  0001 C CNN
	1    8950 1700
	1    0    0    -1  
$EndComp
$Comp
L power:GND #PWR0115
U 1 1 5CD0A407
P 8050 1950
F 0 "#PWR0115" H 8050 1700 50  0001 C CNN
F 1 "GND" H 8055 1777 50  0000 C CNN
F 2 "" H 8050 1950 50  0001 C CNN
F 3 "" H 8050 1950 50  0001 C CNN
	1    8050 1950
	1    0    0    -1  
$EndComp
Wire Wire Line
	6600 4500 6900 4500
Connection ~ 6900 4500
Wire Wire Line
	6900 4500 7750 4500
Connection ~ 6900 3950
Wire Wire Line
	6900 3950 7750 3950
Wire Wire Line
	1900 2650 1900 2850
Wire Wire Line
	1300 2650 1300 2850
Wire Wire Line
	5000 1750 4750 1750
Text Label 5000 1750 0    50   ~ 0
5V
$Comp
L ds3231m:DS3231M U3
U 1 1 5CE068AE
P 4350 5850
F 0 "U3" H 5227 5828 60  0000 L CNN
F 1 "DS3231M" H 5227 5722 60  0000 L CNN
F 2 "DS3231:DS3231" H 4350 5850 60  0001 C CNN
F 3 "" H 4350 5850 60  0001 C CNN
	1    4350 5850
	1    0    0    -1  
$EndComp
$Comp
L Device:R R2
U 1 1 5CE1ABFE
P 3250 5550
F 0 "R2" V 3043 5550 50  0000 C CNN
F 1 "10K" V 3134 5550 50  0000 C CNN
F 2 "Resistors_SMD:R_0805_HandSoldering" V 3180 5550 50  0001 C CNN
F 3 "~" H 3250 5550 50  0001 C CNN
	1    3250 5550
	0    1    1    0   
$EndComp
$Comp
L Device:R R3
U 1 1 5CE1AC5C
P 3250 5700
F 0 "R3" V 3043 5700 50  0000 C CNN
F 1 "10K" V 3134 5700 50  0000 C CNN
F 2 "Resistors_SMD:R_0805_HandSoldering" V 3180 5700 50  0001 C CNN
F 3 "~" H 3250 5700 50  0001 C CNN
	1    3250 5700
	0    1    1    0   
$EndComp
$Comp
L power:GND #PWR0104
U 1 1 5CE1AD3A
P 3100 6350
F 0 "#PWR0104" H 3100 6100 50  0001 C CNN
F 1 "GND" H 3105 6177 50  0000 C CNN
F 2 "" H 3100 6350 50  0001 C CNN
F 3 "" H 3100 6350 50  0001 C CNN
	1    3100 6350
	1    0    0    -1  
$EndComp
Wire Wire Line
	3400 6300 3100 6300
Wire Wire Line
	3100 6300 3100 6350
Text Label 2850 5250 2    50   ~ 0
3V3
Wire Wire Line
	2850 5250 2850 5550
Wire Wire Line
	2850 5550 3100 5550
Wire Wire Line
	3400 6150 2850 6150
Wire Wire Line
	2850 6150 2850 5700
Connection ~ 2850 5550
Wire Wire Line
	3100 5700 2850 5700
Wire Wire Line
	2850 5700 2850 5550
Connection ~ 2850 5700
Text Label 5800 4450 2    50   ~ 0
INT2
Text Label 6200 4100 0    50   ~ 0
INT1
Wire Wire Line
	5250 4100 5700 4100
Wire Wire Line
	5700 3950 5700 4100
Wire Wire Line
	5700 3950 6900 3950
Wire Wire Line
	5800 4450 5800 4200
Wire Wire Line
	5250 4200 5800 4200
Wire Wire Line
	6600 4500 6600 4200
Wire Wire Line
	6600 4200 5800 4200
Connection ~ 5800 4200
Wire Wire Line
	6200 4100 5700 4100
Connection ~ 5700 4100
$Comp
L power:GND #PWR0108
U 1 1 5CF1A233
P 8350 4050
F 0 "#PWR0108" H 8350 3800 50  0001 C CNN
F 1 "GND" H 8355 3877 50  0000 C CNN
F 2 "" H 8350 4050 50  0001 C CNN
F 3 "" H 8350 4050 50  0001 C CNN
	1    8350 4050
	1    0    0    -1  
$EndComp
$Comp
L power:GND #PWR0109
U 1 1 5CF1A276
P 8350 4600
F 0 "#PWR0109" H 8350 4350 50  0001 C CNN
F 1 "GND" H 8355 4427 50  0000 C CNN
F 2 "" H 8350 4600 50  0001 C CNN
F 3 "" H 8350 4600 50  0001 C CNN
	1    8350 4600
	1    0    0    -1  
$EndComp
$Comp
L power:GND #PWR0116
U 1 1 5CF1A2B9
P 7750 4600
F 0 "#PWR0116" H 7750 4350 50  0001 C CNN
F 1 "GND" H 7755 4427 50  0000 C CNN
F 2 "" H 7750 4600 50  0001 C CNN
F 3 "" H 7750 4600 50  0001 C CNN
	1    7750 4600
	1    0    0    -1  
$EndComp
$Comp
L power:GND #PWR0117
U 1 1 5CF1A2FC
P 7750 4050
F 0 "#PWR0117" H 7750 3800 50  0001 C CNN
F 1 "GND" H 7755 3877 50  0000 C CNN
F 2 "" H 7750 4050 50  0001 C CNN
F 3 "" H 7750 4050 50  0001 C CNN
	1    7750 4050
	1    0    0    -1  
$EndComp
Wire Wire Line
	6450 1500 6500 1500
Wire Wire Line
	6100 1500 6150 1500
Wire Wire Line
	8600 1250 8650 1250
Wire Wire Line
	8250 1250 8300 1250
$Comp
L Device:R R9
U 1 1 5CC27DD6
P 8450 1250
F 0 "R9" V 8243 1250 50  0000 C CNN
F 1 "1K" V 8334 1250 50  0000 C CNN
F 2 "Resistors_SMD:R_0805_HandSoldering" V 8380 1250 50  0001 C CNN
F 3 "~" H 8450 1250 50  0001 C CNN
	1    8450 1250
	0    1    1    0   
$EndComp
$Comp
L Device:R R7
U 1 1 5CBEE3BC
P 6300 1500
F 0 "R7" V 6093 1500 50  0000 C CNN
F 1 "1K" V 6184 1500 50  0000 C CNN
F 2 "Resistors_SMD:R_0805_HandSoldering" V 6230 1500 50  0001 C CNN
F 3 "~" H 6300 1500 50  0001 C CNN
	1    6300 1500
	0    1    1    0   
$EndComp
$Comp
L Connector:Conn_01x03_Male J1
U 1 1 5C98B775
P 3250 4550
F 0 "J1" H 3223 4480 50  0000 R CNN
F 1 "Conn_01x03_Male" H 3223 4571 50  0000 R CNN
F 2 "Connector_PinHeader_2.54mm:PinHeader_1x03_P2.54mm_Vertical" H 3250 4550 50  0001 C CNN
F 3 "~" H 3250 4550 50  0001 C CNN
	1    3250 4550
	-1   0    0    1   
$EndComp
Text Label 6550 3850 0    50   ~ 0
RESET
Wire Wire Line
	6550 3850 5850 3850
Wire Wire Line
	5850 3850 5850 3700
Connection ~ 5850 3700
Wire Wire Line
	5850 3700 5950 3700
Wire Wire Line
	5250 3700 5850 3700
Text Label 2850 4650 2    50   ~ 0
RESET
Wire Wire Line
	2850 4650 3050 4650
Wire Wire Line
	2000 6350 1600 6350
Text Label 5450 3500 0    50   ~ 0
SDA
Text Label 5450 3600 0    50   ~ 0
SCL
Text Label 5450 3300 0    50   ~ 0
RTC_SCL
NoConn ~ 2000 5750
NoConn ~ 5250 4400
NoConn ~ 5250 4300
Entry Wire Line
	3550 7400 3650 7500
Wire Wire Line
	2000 5850 1600 5850
Wire Wire Line
	2000 5950 1600 5950
Wire Wire Line
	2000 6050 1600 6050
Wire Wire Line
	2000 6150 1600 6150
Wire Wire Line
	2000 6250 1600 6250
Text Label 8550 2400 2    50   ~ 0
CS_SD
Text Label 8550 2550 2    50   ~ 0
MOSI
Text Label 8550 2700 2    50   ~ 0
SCK
Text Label 8550 2850 2    50   ~ 0
MISO
Text Label 5450 2400 0    50   ~ 0
CS_SD
Wire Wire Line
	5250 2400 5450 2400
Wire Wire Line
	5250 2500 5450 2500
Wire Wire Line
	5250 2600 5450 2600
Wire Wire Line
	5250 2700 5450 2700
Text Label 5450 2500 0    50   ~ 0
MOSI
Text Label 5450 2600 0    50   ~ 0
MISO
Text Label 5450 2700 0    50   ~ 0
SDK
Text Label 3400 6000 2    50   ~ 0
SDA
Text Label 3400 5850 2    50   ~ 0
SCL
Text Label 2000 5850 0    50   ~ 0
RTC_SCL
Text Label 2000 5950 0    50   ~ 0
RTC_SDA
Wire Wire Line
	5450 3200 5250 3200
Text Label 5450 3200 0    50   ~ 0
RTC_SDA
Wire Wire Line
	5250 3100 5450 3100
Text Label 5450 3100 0    50   ~ 0
CS_BME
Text Label 2000 6050 0    50   ~ 0
SDO
NoConn ~ 5250 3400
NoConn ~ 2000 6150
NoConn ~ 2000 6250
NoConn ~ 2000 6350
Text Label 2250 900  1    30   ~ 0
RTC_REC_CLK
Text Label 2300 900  1    30   ~ 0
DATA
$EndSCHEMATC
